…
Read #1

#install.packages("readr")
library(readr) # load the readr package
stickers <- read_tsv(link) 
# spec()

stickers2 <- read_tsv("../../static/data/PosidFazioCordes_StickerRich_Excel-Dataverse.tab.tsv")
stickers2

# # A tibble: 402 x 18
#    SubjectNumber Condition NumberStickers NumberEnvelopes Gender Agemonths
#    <chr>         <chr>     <chr>          <chr>           <chr>      <dbl>
#  1 [Included Sa… 1=12:1; … 1=12; 2=30     1=1 recipient;… 1=fem…      NA  
#  2 1             1         1              1               1           36.0
#  3 2             1         1              1               2           36.0
#  4 3             1         1              1               2           36.0
#  5 4             1         1              1               1           36.0
#  6 5             1         1              1               2           36.0
#  7 6             1         1              1               2           36.0
#  8 7             2         1              2               1           36.0
#  9 8             2         1              2               2           36.0
# 10 9             3         2              1               2           36.0
# # ... with 392 more rows, and 12 more variables: Ageyears <dbl>,
# #   Agegroups <chr>, `Subject'sEnvelope` <chr>, LeftEnvelope <chr>,
# #   RightEnvelope <chr>,
# #   `absolutenumberofstickersgiven(Conditions1or3:Outof12;Conditions2or4:Outof30)` <chr>,
# #   `PercentGiven(Outof100percent)` <chr>, Giveornot <chr>,
# #   LargerEnvelopeabs <chr>, LargeEnvelopepercent <chr>,
# #   SmallerEnvelopeabs <chr>, SmallEnvelopepercent <chr>

# or
library(here)
stickers.tsv <- here("static/data/", "PosidFazioCordes_StickerRich_Excel-Dataverse.tab.tsv")
stickers3 <- read_tsv(stickers.tsv)
stickers3

# # A tibble: 402 x 18
#    SubjectNumber Condition NumberStickers NumberEnvelopes Gender Agemonths
#    <chr>         <chr>     <chr>          <chr>           <chr>      <dbl>
#  1 [Included Sa… 1=12:1; … 1=12; 2=30     1=1 recipient;… 1=fem…      NA  
#  2 1             1         1              1               1           36.0
#  3 2             1         1              1               2           36.0
#  4 3             1         1              1               2           36.0
#  5 4             1         1              1               1           36.0
#  6 5             1         1              1               2           36.0
#  7 6             1         1              1               2           36.0
#  8 7             2         1              2               1           36.0
#  9 8             2         1              2               2           36.0
# 10 9             3         2              1               2           36.0
# # ... with 392 more rows, and 12 more variables: Ageyears <dbl>,
# #   Agegroups <chr>, `Subject'sEnvelope` <chr>, LeftEnvelope <chr>,
# #   RightEnvelope <chr>,
# #   `absolutenumberofstickersgiven(Conditions1or3:Outof12;Conditions2or4:Outof30)` <chr>,
# #   `PercentGiven(Outof100percent)` <chr>, Giveornot <chr>,
# #   LargerEnvelopeabs <chr>, LargeEnvelopepercent <chr>,
# #   SmallerEnvelopeabs <chr>, SmallEnvelopepercent <chr>

kyle <- read_csv("https://gist.githubusercontent.com/kylebgorman/77ce12c9167554ade560af9d34565c11/raw/c5d653fb146821ecd96a9aa085263c3f17480dd5/McFarlaneEtAl_MazeData-Deidentified.csv")
kyle

# # A tibble: 381 x 12
#    Study.ID    CA   VIQ DX    Activity    Content Filler   REP   REV    FS
#    <chr>    <dbl> <dbl> <chr> <chr>         <dbl>  <dbl> <dbl> <dbl> <dbl>
#  1 CSLU-001  5.67   124 TD    Conversati…   24.0   31.0   2.00  5.00 17.0 
#  2 CSLU-001  5.67   124 TD    Picture De…    1.00   2.00  0     0     1.00
#  3 CSLU-001  5.67   124 TD    Play          21.0    6.00  3.00  8.00 10.0 
#  4 CSLU-001  5.67   124 TD    Wordless P…    8.00   2.00  0     4.00  4.00
#  5 CSLU-002  6.50   124 TD    Conversati…    3.00  10.0   3.00  0     0   
#  6 CSLU-002  6.50   124 TD    Picture De…    5.00   3.00  2.00  1.00  2.00
#  7 CSLU-002  6.50   124 TD    Play           8.00   8.00  3.00  2.00  3.00
#  8 CSLU-002  6.50   124 TD    Wordless P…    2.00   2.00  0     0     2.00
#  9 CSLU-007  7.50   108 TD    Conversati…   25.0   21.0   4.00  4.00 17.0 
# 10 CSLU-007  7.50   108 TD    Picture De…   10.0   13.0   0     2.00  8.00
# # ... with 371 more rows, and 2 more variables: Cued <dbl>, Not.Cued <dbl>

High Level Overview: say HLO

stickers

# # A tibble: 402 x 18
#    SubjectNumber Condition NumberStickers NumberEnvelopes Gender Agemonths
#    <chr>         <chr>     <chr>          <chr>           <chr>      <dbl>
#  1 [Included Sa… 1=12:1; … 1=12; 2=30     1=1 recipient;… 1=fem…      NA  
#  2 1             1         1              1               1           36.0
#  3 2             1         1              1               2           36.0
#  4 3             1         1              1               2           36.0
#  5 4             1         1              1               1           36.0
#  6 5             1         1              1               2           36.0
#  7 6             1         1              1               2           36.0
#  8 7             2         1              2               1           36.0
#  9 8             2         1              2               2           36.0
# 10 9             3         2              1               2           36.0
# # ... with 392 more rows, and 12 more variables: Ageyears <dbl>,
# #   Agegroups <chr>, `Subject'sEnvelope` <chr>, LeftEnvelope <chr>,
# #   RightEnvelope <chr>,
# #   `absolutenumberofstickersgiven(Conditions1or3:Outof12;Conditions2or4:Outof30)` <chr>,
# #   `PercentGiven(Outof100percent)` <chr>, Giveornot <chr>,
# #   LargerEnvelopeabs <chr>, LargeEnvelopepercent <chr>,
# #   SmallerEnvelopeabs <chr>, SmallEnvelopepercent <chr>
…
# read in column names only
sticker_names <- link %>% 
  read_tsv(n_max = 0) %>% # default: col_names = TRUE
  rename(stickersgiven = 'absolutenumberofstickersgiven(Conditions1or3:Outof12;Conditions2or4:Outof30)') %>% 
  names()

# read in data, set column names
stickers <- link %>% 
  read_tsv(skip = 2, col_names = sticker_names) %>% 
  clean_names()

stickers

# # A tibble: 401 x 18
#    subject_number condition number_stickers number_envelopes gender
#             <dbl>     <dbl>           <dbl>            <dbl>  <dbl>
#  1           1.00      1.00            1.00             1.00   1.00
#  2           2.00      1.00            1.00             1.00   2.00
#  3           3.00      1.00            1.00             1.00   2.00
#  4           4.00      1.00            1.00             1.00   1.00
#  5           5.00      1.00            1.00             1.00   2.00
#  6           6.00      1.00            1.00             1.00   2.00
#  7           7.00      2.00            1.00             2.00   1.00
#  8           8.00      2.00            1.00             2.00   2.00
#  9           9.00      3.00            2.00             1.00   2.00
# 10          10.0       3.00            2.00             1.00   2.00
# # ... with 391 more rows, and 13 more variables: agemonths <dbl>,
# #   ageyears <dbl>, agegroups <dbl>, subjects_envelope <dbl>,
# #   left_envelope <dbl>, right_envelope <dbl>, stickersgiven <dbl>,
# #   percent_given_outof100percent <dbl>, giveornot <dbl>,
# #   larger_envelopeabs <dbl>, large_envelopepercent <dbl>,
# #   smaller_envelopeabs <dbl>, small_envelopepercent <dbl>
…
